{
  "ok": false,
  "files": [
    {
      "id": "F00000000",
      "created": 12345,
      "timestamp": 12345,
      "name": "",
      "title": "",
      "mimetype": "",
      "filetype": "",
      "pretty_type": "",
      "user": "U00000000",
      "editable": false,
      "size": 12345,
      "mode": "",
      "is_external": false,
      "external_type": "",
      "is_public": false,
      "public_url_shared": false,
      "display_as_bot": false,
      "username": "",
      "url_private": "https://www.example.com/",
      "url_private_download": "https://www.example.com/",
      "permalink": "https://www.example.com/",
      "permalink_public": "https://www.example.com/",
      "edit_link": "https://www.example.com/",
      "preview": "",
      "preview_highlight": "",
      "lines": 12345,
      "lines_more": 12345,
      "preview_is_truncated": false,
      "channels": [
        "",
        "C00000000"
      ],
      "groups": [
        ""
      ],
      "ims": [
        ""
      ],
      "comments_count": 12345,
      "thumb_video": "https://www.example.com/"
    }
  ],
  "paging": {
    "count": 12345,
    "total": 12345,
    "page": 12345,
    "pages": 12345
  },
  "error": "",
  "needed": "",
  "provided": ""
}