{
  "ok": false,
  "files": [
    {
      "id": "F00000000",
      "created": 12345,
      "timestamp": 12345,
      "name": "",
      "title": "",
      "mimetype": "",
      "filetype": "",
      "pretty_type": "",
      "user": "U00000000",
      "editable": false,
      "size": 12345,
      "mode": "",
      "is_external": false,
      "external_type": "",
      "is_public": false,
      "public_url_shared": false,
      "display_as_bot": false,
      "username": "",
      "url_private": "https://www.example.com/",
      "permalink": "https://www.example.com/",
      "channels": [
        "C00000000",
        ""
      ],
      "groups": [
        ""
      ],
      "ims": [
        "",
        "D00000000"
      ],
      "comments_count": 12345,
      "thumb_64": "https://www.example.com/",
      "thumb_80": "https://www.example.com/",
      "thumb_360": "https://www.example.com/",
      "thumb_360_w": 12345,
      "thumb_360_h": 12345,
      "thumb_160": "https://www.example.com/",
      "thumb_800": "https://www.example.com/",
      "thumb_800_w": 12345,
      "thumb_800_h": 12345,
      "image_exif_rotation": 12345,
      "original_w": 12345,
      "original_h": 12345,
      "thumb_tiny": "",
      "url_private_download": "https://www.example.com/",
      "thumb_480": "https://www.example.com/",
      "thumb_480_w": 12345,
      "thumb_480_h": 12345,
      "thumb_720": "https://www.example.com/",
      "thumb_720_w": 12345,
      "thumb_720_h": 12345,
      "permalink_public": "https://www.example.com/",
      "edit_link": "https://www.example.com/",
      "preview": "",
      "preview_highlight": "",
      "lines": 12345,
      "lines_more": 12345,
      "preview_is_truncated": false,
      "thumb_960": "https://www.example.com/",
      "thumb_960_w": 12345,
      "thumb_960_h": 12345,
      "thumb_1024": "https://www.example.com/",
      "thumb_1024_w": 12345,
      "thumb_1024_h": 12345,
      "media_display_type": "",
      "num_stars": 12345,
      "is_starred": false,
      "thumb_360_gif": "https://www.example.com/",
      "thumb_480_gif": "https://www.example.com/",
      "deanimate": "https://www.example.com/",
      "deanimate_gif": "https://www.example.com/",
      "subject": "",
      "to": [
        {
          "address": "",
          "name": "",
          "original": ""
        }
      ],
      "from": [
        {
          "address": "",
          "name": "",
          "original": ""
        }
      ],
      "cc": [
        {
          "address": "",
          "name": "",
          "original": ""
        }
      ],
      "attachments": [
        {
          "msg_subtype": "",
          "fallback": "",
          "callback_id": "",
          "color": "",
          "pretext": "",
          "service_url": "",
          "service_name": "",
          "service_icon": "",
          "author_id": "",
          "author_name": "",
          "author_link": "",
          "author_icon": "",
          "from_url": "",
          "original_url": "",
          "author_subname": "",
          "channel_id": "",
          "channel_name": "",
          "id": 12345,
          "bot_id": "",
          "indent": false,
          "is_msg_unfurl": false,
          "is_reply_unfurl": false,
          "is_thread_root_unfurl": false,
          "is_app_unfurl": false,
          "app_unfurl_url": "",
          "title": "",
          "title_link": "",
          "text": "",
          "fields": [
            {
              "title": "",
              "value": "",
              "short": false
            }
          ],
          "image_url": "",
          "image_width": 12345,
          "image_height": 12345,
          "image_bytes": 12345,
          "thumb_url": "",
          "thumb_width": 12345,
          "thumb_height": 12345,
          "video_url": "",
          "video_html": "",
          "video_html_width": 12345,
          "video_html_height": 12345,
          "footer": "",
          "footer_icon": "",
          "ts": "",
          "mrkdwn_in": [
            ""
          ],
          "actions": [
            {
              "id": "",
              "name": "",
              "text": "",
              "style": "",
              "type": "",
              "value": "",
              "confirm": {
                "title": "",
                "text": "",
                "ok_text": "",
                "dismiss_text": ""
              },
              "options": [
                {
                  "text": "",
                  "value": ""
                }
              ],
              "selected_options": [
                {
                  "text": "",
                  "value": ""
                }
              ],
              "data_source": "",
              "min_query_length": 12345,
              "option_groups": [
                {
                  "text": ""
                }
              ],
              "url": ""
            }
          ],
          "filename": "",
          "size": 12345,
          "mimetype": "",
          "url": "",
          "metadata": {
            "thumb_64": false,
            "thumb_80": false,
            "thumb_160": false,
            "original_w": 12345,
            "original_h": 12345,
            "thumb_360_w": 12345,
            "thumb_360_h": 12345,
            "format": "",
            "extension": "",
            "rotation": 12345,
            "thumb_tiny": ""
          }
        }
      ],
      "original_attachment_count": 12345,
      "plain_text": "",
      "preview_plain_text": "",
      "headers": {
        "date": "",
        "reply_to": "",
        "message_id": "",
        "in_reply_to": ""
      },
      "app_id": "A00000000",
      "app_name": "",
      "has_more": false,
      "sent_to_self": false,
      "non_owner_editable": false,
      "editor": "",
      "last_editor": "",
      "updated": 12345,
      "external_id": "",
      "external_url": "",
      "thumb_64_gif": "",
      "thumb_64_w": "",
      "thumb_64_h": "",
      "thumb_80_gif": "",
      "thumb_80_w": "",
      "thumb_80_h": "",
      "thumb_160_gif": "",
      "thumb_160_w": "",
      "thumb_160_h": "",
      "thumb_720_gif": "",
      "thumb_800_gif": "",
      "thumb_960_gif": "",
      "thumb_1024_gif": "",
      "thumb_video": "",
      "thumb_gif": "",
      "thumb_pdf": "",
      "thumb_pdf_w": "",
      "thumb_pdf_h": "",
      "converted_pdf": "",
      "pjpeg": "",
      "has_rich_preview": false,
      "shares": {},
      "channel_actions_ts": "",
      "channel_actions_count": 12345,
      "simplified_html": "",
      "bot_id": "",
      "initial_comment": {
        "id": "",
        "created": 12345,
        "timestamp": 12345,
        "user": "",
        "comment": "",
        "channel": "",
        "is_intro": false
      }
    }
  ],
  "paging": {
    "count": 12345,
    "total": 12345,
    "page": 12345,
    "pages": 12345
  },
  "error": "",
  "needed": "",
  "provided": ""
}