{
  "ok": false,
  "file": {
    "id": "F00000000",
    "created": 12345,
    "timestamp": 12345,
    "name": "",
    "title": "",
    "mimetype": "",
    "filetype": "",
    "pretty_type": "",
    "user": "U00000000",
    "editable": false,
    "size": 12345,
    "mode": "",
    "is_external": false,
    "external_type": "",
    "is_public": false,
    "public_url_shared": false,
    "display_as_bot": false,
    "username": "",
    "url_private": "https://www.example.com/",
    "url_private_download": "https://www.example.com/",
    "permalink": "https://www.example.com/",
    "permalink_public": "https://www.example.com/",
    "edit_link": "https://www.example.com/",
    "preview": "",
    "preview_highlight": "",
    "lines": 12345,
    "lines_more": 12345,
    "preview_is_truncated": false,
    "comments_count": 12345,
    "is_starred": false,
    "shares": {
      "public": {
        "C03E94MKU": [
          {
            "reply_users": [
              ""
            ],
            "reply_users_count": 12345,
            "reply_count": 12345,
            "ts": "0000000000.000000",
            "channel_name": "",
            "team_id": "T00000000"
          }
        ],
        "C03E94MKU_": [
          {
            "reply_users": [
              ""
            ],
            "reply_users_count": 12345,
            "reply_count": 12345,
            "ts": "0000000000.000000",
            "channel_name": "",
            "team_id": "T00000000"
          }
        ]
      }
    },
    "channels": [
      "C00000000"
    ],
    "groups": [
      ""
    ],
    "ims": [
      ""
    ],
    "has_rich_preview": false,
    "thumb_64": "https://www.example.com/",
    "thumb_80": "https://www.example.com/",
    "thumb_360": "https://www.example.com/",
    "thumb_360_w": 12345,
    "thumb_360_h": 12345,
    "thumb_160": "https://www.example.com/",
    "image_exif_rotation": 12345,
    "original_w": 12345,
    "original_h": 12345
  },
  "content": "",
  "is_truncated": false,
  "content_highlight_html": "",
  "content_highlight_css": "",
  "comments": [
    {
      "id": "",
      "created": 12345,
      "timestamp": 12345,
      "user": "U00000000",
      "is_intro": false,
      "comment": ""
    }
  ],
  "paging": {
    "count": 12345,
    "total": 12345,
    "page": 12345,
    "pages": 12345
  },
  "error": "",
  "needed": "",
  "provided": ""
}