{
  "ok": false,
  "items": [
    {
      "type": "",
      "channel": "C00000000",
      "message": {
        "bot_id": "B00000000",
        "type": "",
        "text": "",
        "user": "U00000000",
        "ts": "0000000000.000000",
        "team": "T00000000",
        "bot_profile": {
          "id": "B00000000",
          "deleted": false,
          "name": "",
          "updated": 12345,
          "app_id": "A00000000",
          "icons": {
            "image_36": "https://www.example.com/",
            "image_48": "https://www.example.com/",
            "image_72": "https://www.example.com/"
          },
          "team_id": "T00000000"
        },
        "blocks": [
          {
            "type": "",
            "block_id": "",
            "elements": [
              {
                "type": "",
                "text": {
                  "type": "",
                  "text": "",
                  "emoji": false
                },
                "action_id": "",
                "url": "",
                "value": "",
                "style": "",
                "confirm": {
                  "title": {
                    "type": "",
                    "text": "",
                    "emoji": false
                  },
                  "text": {
                    "type": "",
                    "text": "",
                    "emoji": false
                  },
                  "confirm": {
                    "type": "",
                    "text": "",
                    "emoji": false
                  },
                  "deny": {
                    "type": "",
                    "text": "",
                    "emoji": false
                  },
                  "style": ""
                },
                "placeholder": {
                  "type": "",
                  "text": "",
                  "emoji": false
                },
                "initial_channel": "",
                "response_url_enabled": false,
                "initial_conversation": "",
                "filter": {
                  "exclude_external_shared_channels": false,
                  "exclude_bot_users": false
                },
                "initial_date": "",
                "initial_option": {
                  "text": {
                    "type": "",
                    "text": "",
                    "emoji": false
                  },
                  "value": "",
                  "description": {
                    "type": "",
                    "text": "",
                    "emoji": false
                  },
                  "url": ""
                },
                "min_query_length": 12345,
                "image_url": "",
                "alt_text": "",
                "fallback": "",
                "image_width": 12345,
                "image_height": 12345,
                "image_bytes": 12345,
                "initial_user": ""
              },
              {
                "type": "",
                "image_url": "",
                "alt_text": "",
                "fallback": "",
                "image_width": 12345,
                "image_height": 12345,
                "image_bytes": 12345
              }
            ],
            "fallback": "",
            "image_url": "",
            "image_width": 12345,
            "image_height": 12345,
            "image_bytes": 12345,
            "alt_text": "",
            "title": {
              "type": "",
              "text": "",
              "emoji": false
            },
            "text": {
              "type": "",
              "text": "",
              "emoji": false
            },
            "fields": [
              {
                "type": "",
                "text": "",
                "emoji": false,
                "verbatim": false
              }
            ],
            "accessory": {
              "type": "",
              "image_url": "",
              "alt_text": "",
              "fallback": "",
              "image_width": 12345,
              "image_height": 12345,
              "image_bytes": 12345
            }
          }
        ],
        "reactions": [
          {
            "name": "",
            "users": [
              "U00000000"
            ],
            "count": 12345
          }
        ],
        "permalink": "https://www.example.com/",
        "client_msg_id": "",
        "thread_ts": "0000000000.000000",
        "reply_count": 12345,
        "reply_users_count": 12345,
        "latest_reply": "0000000000.000000",
        "reply_users": [
          "B00000000"
        ],
        "subscribed": false,
        "files": [
          {
            "id": "F00000000",
            "created": 12345,
            "timestamp": 12345,
            "name": "",
            "title": "",
            "mimetype": "",
            "filetype": "",
            "pretty_type": "",
            "user": "U00000000",
            "editable": false,
            "size": 12345,
            "mode": "",
            "is_external": false,
            "external_type": "",
            "is_public": false,
            "public_url_shared": false,
            "display_as_bot": false,
            "username": "",
            "url_private": "https://www.example.com/",
            "url_private_download": "https://www.example.com/",
            "permalink": "https://www.example.com/",
            "permalink_public": "https://www.example.com/",
            "preview": "",
            "last_editor": "U00000000",
            "non_owner_editable": false,
            "updated": 12345,
            "is_starred": false,
            "has_rich_preview": false
          },
          {
            "id": "F00000000",
            "created": 12345,
            "timestamp": 12345,
            "name": "",
            "title": "",
            "mimetype": "",
            "filetype": "",
            "pretty_type": "",
            "user": "U00000000",
            "editable": false,
            "size": 12345,
            "mode": "",
            "is_external": false,
            "external_type": "",
            "is_public": false,
            "public_url_shared": false,
            "display_as_bot": false,
            "username": "",
            "url_private": "https://www.example.com/",
            "url_private_download": "https://www.example.com/",
            "permalink": "https://www.example.com/",
            "permalink_public": "https://www.example.com/",
            "preview": "",
            "last_editor": "U00000000",
            "non_owner_editable": false,
            "updated": 12345,
            "is_starred": false,
            "has_rich_preview": false
          }
        ],
        "upload": false,
        "display_as_bot": false
      }
    }
  ],
  "paging": {
    "count": 12345,
    "total": 12345,
    "page": 12345,
    "pages": 12345
  },
  "error": "",
  "needed": "",
  "provided": ""
}